Data Source Catalogues Online for Southern Ocean Ecosystem Research • sooty
…
The goal of sooty is to provide access to data of relevance to Southern Ocean research.

To see what files we know about in object storage, use

library(sooty)
(files <- tibble::as_tibble(sooty_files()))
#> # A tibble: 90,965 × 7
#>    date                source                Dataset Bucket Key   Protocol Host 
#>    <dttm>              <chr>                 <chr>   <chr>  <chr> <chr>    <chr>
#>  1 1981-09-01 00:00:00 /vsicurl/https://pro… oisst-… idea-… www.… /vsicurl http…
#>  2 1981-09-02 00:00:00 /vsicurl/https://pro… oisst-… idea-… www.… /vsicurl http…
#>  3 1981-09-03 00:00:00 /vsicurl/https://pro… oisst-… idea-… www.… /vsicurl http…
#>  4 1981-09-04 00:00:00 /vsicurl/https://pro… oisst-… idea-… www.… /vsicurl http…
#>  5 1981-09-05 00:00:00 /vsicurl/https://pro… oisst-… idea-… www.… /vsicurl http…
#>  6 1981-09-06 00:00:00 /vsicurl/https://pro… oisst-… idea-… www.… /vsicurl http…
#>  7 1981-09-07 00:00:00 /vsicurl/https://pro… oisst-… idea-… www.… /vsicurl http…
#>  8 1981-09-08 00:00:00 /vsicurl/https://pro… oisst-… idea-… www.… /vsicurl http…
#>  9 1981-09-09 00:00:00 /vsicurl/https://pro… oisst-… idea-… www.… /vsicurl http…
#> 10 1981-09-10 00:00:00 /vsicurl/https://pro… oisst-… idea-… www.… /vsicurl http…
#> # ℹ 90,955 more rows
…
ds@source
#> # A tibble: 16,988 × 7
#>    date                source                Dataset Bucket Key   Protocol Host 
#>    <dttm>              <chr>                 <chr>   <chr>  <chr> <chr>    <chr>
#>  1 1978-10-26 00:00:00 /vsicurl/https://pro… NSIDC_… idea-… n5ei… /vsicurl http…
#>  2 1978-10-27 00:00:00 /vsicurl/https://pro… NSIDC_… idea-… n5ei… /vsicurl http…
#>  3 1978-10-28 00:00:00 /vsicurl/https://pro… NSIDC_… idea-… n5ei… /vsicurl http…
#>  4 1978-10-29 00:00:00 /vsicurl/https://pro… NSIDC_… idea-… n5ei… /vsicurl http…
#>  5 1978-10-30 00:00:00 /vsicurl/https://pro… NSIDC_… idea-… n5ei… /vsicurl http…
#>  6 1978-10-31 00:00:00 /vsicurl/https://pro… NSIDC_… idea-… n5ei… /vsicurl http…
#>  7 1978-11-01 00:00:00 /vsicurl/https://pro… NSIDC_… idea-… n5ei… /vsicurl http…
#>  8 1978-11-02 00:00:00 /vsicurl/https://pro… NSIDC_… idea-… n5ei… /vsicurl http…
#>  9 1978-11-03 00:00:00 /vsicurl/https://pro… NSIDC_… idea-… n5ei… /vsicurl http…
#> 10 1978-11-04 00:00:00 /vsicurl/https://pro… NSIDC_… idea-… n5ei… /vsicurl http…
#> # ℹ 16,978 more rows
…
