…
The goal of sooty is to provide access to data of relevance to Southern
Ocean research.

To see what files we know about in object storage, use

``` r
library(sooty)
(files <- sooty_files())
#> # A tibble: 232,798 × 7
#>    date                source                Dataset Bucket Key   Protocol Host 
#>    <dttm>              <chr>                 <chr>   <chr>  <chr> <chr>    <chr>
#>  1 1981-09-01 00:00:00 /vsicurl/https://pro… oisst-… idea-… www.… /vsicurl http…
#>  2 1981-09-02 00:00:00 /vsicurl/https://pro… oisst-… idea-… www.… /vsicurl http…
#>  3 1981-09-03 00:00:00 /vsicurl/https://pro… oisst-… idea-… www.… /vsicurl http…
#>  4 1981-09-04 00:00:00 /vsicurl/https://pro… oisst-… idea-… www.… /vsicurl http…
#>  5 1981-09-05 00:00:00 /vsicurl/https://pro… oisst-… idea-… www.… /vsicurl http…
#>  6 1981-09-06 00:00:00 /vsicurl/https://pro… oisst-… idea-… www.… /vsicurl http…
#>  7 1981-09-07 00:00:00 /vsicurl/https://pro… oisst-… idea-… www.… /vsicurl http…
#>  8 1981-09-08 00:00:00 /vsicurl/https://pro… oisst-… idea-… www.… /vsicurl http…
#>  9 1981-09-09 00:00:00 /vsicurl/https://pro… oisst-… idea-… www.… /vsicurl http…
#> 10 1981-09-10 00:00:00 /vsicurl/https://pro… oisst-… idea-… www.… /vsicurl http…
#> # ℹ 232,788 more rows
```

The main columns of interest are `date` and `source` and `Dataset`, the
`source` is a directly useable source identifier that a GDAL-enabled
package can read. (See examples below).

We can get a very simple model of a “logical dataset” by honing in one
`Dataset` in particular. First let’s make a summary from everything:

``` r
library(sooty)
sooty_files() |> 
     dplyr::mutate(date = as.Date(date)) |>  dplyr::group_by(Dataset) |> 
     dplyr::summarize(earliest = min(date), latest = max(date), n = dplyr::n()) |> 
     dplyr::arrange(Dataset, earliest)
#> # A tibble: 24 × 4
#>    Dataset                             earliest   latest         n
#>    <chr>                               <date>     <date>     <int>
#>  1 BREMEN-SEAICE-SMOS-north            2010-05-01 2025-08-24  5569
#>  2 BREMEN-SEAICE-SMOS-south            2010-10-01 2016-05-03    12
#>  3 NSIDC_SEAICE_PS_N25km               1978-10-26 2025-08-24 15448
#>  4 NSIDC_SEAICE_PS_S25km               1978-10-26 2025-08-24 15448
#>  5 SEALEVEL_GLO_PHY_L4                 1993-01-01 2025-08-25 11811
#>  6 antarctica-amsr2-asi-s3125-tif      2012-07-02 2025-08-24  4791
#>  7 ccmp-wind-product-v2                1993-01-02 2024-08-31 11552
#>  8 esacci-oc-l3s-chlor-a-merged-5day   1997-09-03 2025-03-27  2019
#>  9 esacci-oc-l3s-chlor-a-merged-annual 1997-09-01 2024-09-01    28
#> 10 esacci-oc-l3s-chlor-a-merged-daily  1997-09-04 2025-03-31 10045
#> # ℹ 14 more rows
```
…
rast(file)
#> class       : SpatRaster 
#> size        : 17999, 36000, 1  (nrow, ncol, nlyr)
#> resolution  : 0.01, 0.01  (x, y)
#> extent      : -179.995, 180.005, -89.995, 89.995  (xmin, xmax, ymin, ymax)
#> coord. ref. : lon/lat WGS 84 (EPSG:4326) 
#> source      : 20250829090000-JPL-L4_GHRSST-SSTfnd-MUR-GLOB-v02.0-fv04.1_analysed_sst.tif 
#> name        : 20250829090000-JPL-L4_GHRSST-S~GLOB-v02.0-fv04.1_analysed_sst
```

The available datasets can be found from the table.

``` r
dplyr::distinct(sooty_files(), Dataset)
#> # A tibble: 24 × 1
#>    Dataset                       
#>    <chr>                         
#>  1 oisst-avhrr-v02r01            
#>  2 SEALEVEL_GLO_PHY_L4           
#>  3 NSIDC_SEAICE_PS_S25km         
#>  4 NSIDC_SEAICE_PS_N25km         
#>  5 antarctica-amsr2-asi-s3125-tif
#>  6 ghrsst-tif                    
#>  7 ccmp-wind-product-v2          
#>  8 BREMEN-SEAICE-SMOS-south      
#>  9 BREMEN-SEAICE-SMOS-north      
#> 10 oisst-tif                     
#> # ℹ 14 more rows
```
…
ds@source
#> # A tibble: 15,448 × 7
#>    date                source                Dataset Bucket Key   Protocol Host 
#>    <dttm>              <chr>                 <chr>   <chr>  <chr> <chr>    <chr>
#>  1 1978-10-26 00:00:00 /vsicurl/https://pro… NSIDC_… idea-… n5ei… /vsicurl http…
#>  2 1978-10-28 00:00:00 /vsicurl/https://pro… NSIDC_… idea-… n5ei… /vsicurl http…
#>  3 1978-10-30 00:00:00 /vsicurl/https://pro… NSIDC_… idea-… n5ei… /vsicurl http…
#>  4 1978-11-01 00:00:00 /vsicurl/https://pro… NSIDC_… idea-… n5ei… /vsicurl http…
#>  5 1978-11-03 00:00:00 /vsicurl/https://pro… NSIDC_… idea-… n5ei… /vsicurl http…
#>  6 1978-11-05 00:00:00 /vsicurl/https://pro… NSIDC_… idea-… n5ei… /vsicurl http…
#>  7 1978-11-07 00:00:00 /vsicurl/https://pro… NSIDC_… idea-… n5ei… /vsicurl http…
#>  8 1978-11-09 00:00:00 /vsicurl/https://pro… NSIDC_… idea-… n5ei… /vsicurl http…
#>  9 1978-11-11 00:00:00 /vsicurl/https://pro… NSIDC_… idea-… n5ei… /vsicurl http…
#> 10 1978-11-13 00:00:00 /vsicurl/https://pro… NSIDC_… idea-… n5ei… /vsicurl http…
#> # ℹ 15,438 more rows
```
…
