Obtain object storage catalogues as a dataframe of file/object identifiers. — sooty_files • sooty
…
The original publisher URI can be reconstructed by replacing the value of 'protocol' in 'source'
with 'https://'.

The public object URI can be reconstructed by replacing the value of 'protocol' in 'source' with
'https://projects.pawsey.org.au'.

    Examples

if (interactive()) {
  sooty_files(FALSE)
}

sooty_files()
#> # A tibble: 117,743 × 7
#>    date                source                Dataset Bucket Key   Protocol Host 
#>    <dttm>              <chr>                 <chr>   <chr>  <chr> <chr>    <chr>
#>  1 1981-09-01 00:00:00 /vsicurl/https://pro… oisst-… idea-… www.… /vsicurl http…
#>  2 1981-09-02 00:00:00 /vsicurl/https://pro… oisst-… idea-… www.… /vsicurl http…
#>  3 1981-09-03 00:00:00 /vsicurl/https://pro… oisst-… idea-… www.… /vsicurl http…
#>  4 1981-09-04 00:00:00 /vsicurl/https://pro… oisst-… idea-… www.… /vsicurl http…
#>  5 1981-09-05 00:00:00 /vsicurl/https://pro… oisst-… idea-… www.… /vsicurl http…
#>  6 1981-09-06 00:00:00 /vsicurl/https://pro… oisst-… idea-… www.… /vsicurl http…
#>  7 1981-09-07 00:00:00 /vsicurl/https://pro… oisst-… idea-… www.… /vsicurl http…
#>  8 1981-09-08 00:00:00 /vsicurl/https://pro… oisst-… idea-… www.… /vsicurl http…
#>  9 1981-09-09 00:00:00 /vsicurl/https://pro… oisst-… idea-… www.… /vsicurl http…
#> 10 1981-09-10 00:00:00 /vsicurl/https://pro… oisst-… idea-… www.… /vsicurl http…
#> # ℹ 117,733 more rows
…
